{
  "current_page": 3,
  "data": [
    {
      "breed": "LaPerm",
      "country": "United States",
      "origin": "Mutation",
      "coat": "Rex",
      "pattern": "All"
    },
    {
      "breed": "Lykoi",
      "country": "United States",
      "origin": "Natural/Mutation",
      "coat": "Partly Hairless",
      "pattern": "Ticked"
    },
    {
      "breed": "Maine Coon",
      "country": "United States",
      "origin": "Natural",
      "coat": "Long",
      "pattern": "All but colorpoint and ticked"
    },
    {
      "breed": "Manx",
      "country": "United Kingdom (Isle of Man)",
      "origin": "Mutation",
      "coat": "Short/Long",
      "pattern": "All but colorpoint"
    },
    {
      "breed": "Mekong Bobtail",
      "country": "Russia",
      "origin": "Natural/Mutation",
      "coat": "Short",
      "pattern": "Colorpoint"
    },
    {
      "breed": "Minskin",
      "country": "United States",
      "origin": "Crossbreed",
      "coat": "Short/Hairless",
      "pattern": "All"
    },
    {
      "breed": "Munchkin",
      "country": "United States",
      "origin": "Mutation",
      "coat": "",
      "pattern": ""
    },
    {
      "breed": "Nebelung",
      "country": "United States",
      "origin": "",
      "coat": "Semi-long",
      "pattern": "Solid"
    },
    {
      "breed": "Napoleon",
      "country": "",
      "origin": "",
      "coat": "Long/short",
      "pattern": "Varied"
    },
    {
      "breed": "Norwegian Forest cat",
      "country": "Norway",
      "origin": "Natural",
      "coat": "Long",
      "pattern": "All but colorpoint"
    },
    {
      "breed": "Ocicat",
      "country": "United States",
      "origin": "Crossbreed",
      "coat": "Short",
      "pattern": "Spotted"
    },
    {
      "breed": "Ojos Azules",
      "country": "United States",
      "origin": "",
      "coat": "",
      "pattern": ""
    },
    {
      "breed": "Oregon Rex",
      "country": "United States",
      "origin": "Mutation",
      "coat": "Rex",
      "pattern": ""
    },
    {
      "breed": "Oriental Bicolor",
      "country": "",
      "origin": "",
      "coat": "",
      "pattern": "Bicolor"
    },
    {
      "breed": "Oriental Shorthair",
      "country": "",
      "origin": "",
      "coat": "Short",
      "pattern": "All but colorpoint"
    },
    {
      "breed": "Oriental Longhair",
      "country": "",
      "origin": "",
      "coat": "Semi-long",
      "pattern": ""
    },
    {
      "breed": "PerFoldæ(Experimental Breed - WCF)",
      "country": "Europe",
      "origin": "Crossbreed",
      "coat": "Long",
      "pattern": "All"
    },
    {
      "breed": "Persian (Modern Persian Cat)",
      "country": "Iran (Persia)",
      "origin": "Crossbreed",
      "coat": "Long",
      "pattern": "All"
    },
    {
      "breed": "Persian (Traditional Persian Cat)",
      "country": "Greater Iran",
      "origin": "Natural",
      "coat": "Long",
      "pattern": "All"
    },
    {
      "breed": "Peterbald",
      "country": "Russia",
      "origin": "Crossbreed",
      "coat": "Hairless",
      "pattern": "All"
    },
    {
      "breed": "Pixie-bob",
      "country": "United States",
      "origin": "Natural",
      "coat": "Short",
      "pattern": "Spotted"
    },
    {
      "breed": "Raas",
      "country": "Indonesia",
      "origin": "Natural",
      "coat": "Short",
      "pattern": ""
    },
    {
      "breed": "Ragamuffin",
      "country": "United States",
      "origin": "Crossbreed",
      "coat": "Long",
      "pattern": "All"
    },
    {
      "breed": "Ragdoll",
      "country": "United States",
      "origin": "Crossbreed",
      "coat": "Long",
      "pattern": "Colorpoint/Mitted/Bicolor"
    },
    {
      "breed": "Russian Blue",
      "country": "Russia",
      "origin": "Natural",
      "coat": "Short",
      "pattern": "Solid"
    }
  ],
  "first_page_url": "https://catfact.ninja/breeds?page=1",
  "from": 51,
  "last_page": 4,
  "last_page_url": "https://catfact.ninja/breeds?page=4",
  "links": [
    {
      "url": "https://catfact.ninja/breeds?page=2",
      "label": "Previous",
      "active": false
    },
    {
      "url": "https://catfact.ninja/breeds?page=1",
      "label": "1",
      "active": false
    },
    {
      "url": "https://catfact.ninja/breeds?page=2",
      "label": "2",
      "active": false
    },
    {
      "url": "https://catfact.ninja/breeds?page=3",
      "label": "3",
      "active": true
    },
    {
      "url": "https://catfact.ninja/breeds?page=4",
      "label": "4",
      "active": false
    },
    {
      "url": "https://catfact.ninja/breeds?page=4",
      "label": "Next",
      "active": false
    }
  ],
  "next_page_url": "https://catfact.ninja/breeds?page=4",
  "path": "https://catfact.ninja/breeds",
  "per_page": 25,
  "prev_page_url": "https://catfact.ninja/breeds?page=2",
  "to": 75,
  "total": 98
}